name,link,date
Caro Roma,https://en.wikipedia.org/wiki/Caro_Roma,2022-06-21T09:00:00
Faustina Hasse Hodges,https://en.wikipedia.org/wiki/Faustina_Hasse_Hodges,2022-06-22T10:00:00
Augusta Browne,https://en.wikipedia.org/wiki/Augusta_Browne,2022-06-23T11:00:00
Marion Dix Sullivan,https://en.wikipedia.org/wiki/Marion_Dix_Sullivan,2022-06-24T12:00:00
Carrie Jacobs-Bond,https://en.wikipedia.org/wiki/Carrie_Jacobs-Bond,2022-06-25T13:00:00
Ann Ronell,https://en.wikipedia.org/wiki/Ann_Ronell,2022-06-26T14:00:00
Irene Higginbotham,https://en.wikipedia.org/wiki/Irene_Higginbotham,2022-06-27T15:00:00
Dorothy Fields,https://en.wikipedia.org/wiki/Dorothy_Fields,2022-06-28T16:00:00
Lil Hardin Armstrong,https://en.wikipedia.org/wiki/Lil_Hardin_Armstrong,2022-06-29T17:00:00
Billie Holiday,https://en.wikipedia.org/wiki/Billie_Holiday,2022-06-30T17:59:59
Carole King,https://en.wikipedia.org/wiki/Carole_King,2022-07-01T18:59:59
Ellie Greenwich,https://en.wikipedia.org/wiki/Ellie_Greenwich,2022-07-02T19:59:59
Joni Mitchell,https://en.wikipedia.org/wiki/Joni_Mitchell,2022-07-03T20:59:59
Lotti Golden,https://en.wikipedia.org/wiki/Lotti_Golden,2022-07-04T21:59:59
Laura Nyro,https://en.wikipedia.org/wiki/Laura_Nyro,2022-07-05T22:59:59
Melanie Safka,https://en.wikipedia.org/wiki/Melanie_Safka,2022-07-07T00:00:00
Janis Ian,https://en.wikipedia.org/wiki/Janis_Ian,2022-07-08T00:59:59
Alice Echols,https://en.wikipedia.org/wiki/Alice_Echols,2022-07-09T01:59:59
Grace Slick,https://en.wikipedia.org/wiki/Grace_Slick,2022-07-10T02:59:59
Lisa Kron,https://en.wikipedia.org/wiki/Lisa_Kron,2022-07-11T03:59:59
Jeanine Tesori,https://en.wikipedia.org/wiki/Jeanine_Tesori,2022-07-12T04:59:59
Cyndi Lauper,https://en.wikipedia.org/wiki/Cyndi_Lauper,2022-07-13T05:59:59
Lolo (singer),https://en.wikipedia.org/wiki/Lolo_(singer),2022-07-14T06:59:59
LaShonda Katrice Barnett,https://en.wikipedia.org/wiki/LaShonda_Katrice_Barnett,2022-07-15T07:59:59
Sylvia Moy,https://en.wikipedia.org/wiki/Sylvia_Moy,2022-07-16T08:59:59
Valerie Simpson,https://en.wikipedia.org/wiki/Ashford_%26_Simpson,2022-07-17T09:59:59
Dolly Parton,https://en.wikipedia.org/wiki/Dolly_Parton,2022-07-18T10:59:59
Stevie Nicks,https://en.wikipedia.org/wiki/Stevie_Nicks,2022-07-19T11:59:59
Madonna Louise Ciccone,https://en.wikipedia.org/wiki/Madonna,2022-07-20T12:59:59
Chrissie Hynde,https://en.wikipedia.org/wiki/Chrissie_Hynde,2022-07-21T13:59:59
Loretta Lynn,https://en.wikipedia.org/wiki/Loretta_Lynn,2022-07-22T14:59:59
Lucinda Williams,https://en.wikipedia.org/wiki/Lucinda_Williams,2022-07-23T15:59:59
Björk Guðmundsdóttir,https://en.wikipedia.org/wiki/Bj%C3%B6rk,2022-07-24T16:59:59
Taylor Swift,https://en.wikipedia.org/wiki/Taylor_Swift,2022-07-25T17:59:59
Abbey Lincoln,https://en.wikipedia.org/wiki/Abbey_Lincoln,2022-07-26T18:59:59
Marcia Citron,https://en.wikipedia.org/wiki/Marcia_Citron,2022-07-27T19:59:59
Hildegard of Bingen,https://en.wikipedia.org/wiki/Hildegard_of_Bingen,2022-07-28T20:59:59
Clara Schumann,https://en.wikipedia.org/wiki/Clara_Schumann,2022-07-29T21:59:59
Maddalena Casulana,https://en.wikipedia.org/wiki/Maddalena_Casulana,2022-07-30T22:59:59
Isabella de' Medici,https://en.wikipedia.org/wiki/Isabella_de%27_Medici,2022-08-01T00:00:00
Caterina Assandra,https://en.wikipedia.org/wiki/Caterina_Assandra,2022-08-02T00:59:59
Francesca Caccini,https://en.wikipedia.org/wiki/Francesca_Caccini,2022-08-03T01:59:59
Barbara Strozzi,https://en.wikipedia.org/wiki/Barbara_Strozzi,2022-08-04T02:59:59
Élisabeth Jacquet de La Guerre,https://en.wikipedia.org/wiki/%C3%89lisabeth_Jacquet_de_La_Guerre,2022-08-05T03:59:59
Harriett Abrams,https://en.wikipedia.org/wiki/Harriett_Abrams,2022-08-06T04:59:59
Maria Teresa Agnesi Pinottini,https://en.wikipedia.org/wiki/Maria_Teresa_Agnesi_Pinottini,2022-08-07T05:59:59
Maria Theresa,https://en.wikipedia.org/wiki/Maria_Theresa,2022-08-08T06:59:59
Maria Antonia,https://en.wikipedia.org/wiki/Duchess_Maria_Antonia_of_Bavaria,2022-08-09T07:59:59
Anna Amalia,"https://en.wikipedia.org/wiki/Anna_Amalia,_Abbess_of_Quedlinburg",2022-08-10T08:59:59
Elisabeth Olin,https://en.wikipedia.org/wiki/Elisabeth_Olin,2022-08-11T09:59:59
Mademoiselle Beaumesnil,https://en.wikipedia.org/wiki/Mademoiselle_Beaumesnil,2022-08-12T10:59:59
Anna Bon,https://en.wikipedia.org/wiki/Anna_Bon,2022-08-13T11:59:59
Jane Mary Guest,https://en.wikipedia.org/wiki/Jane_Mary_Guest,2022-08-14T12:59:59
Marianna Martines,https://en.wikipedia.org/wiki/Marianna_Martines,2022-08-15T13:59:59
Maria Szymanowska,https://en.wikipedia.org/wiki/Maria_Szymanowska,2022-08-16T14:59:59
Fanny Mendelssohn,https://en.wikipedia.org/wiki/Fanny_Mendelssohn,2022-08-17T15:59:59
Katherine Hoover,https://en.wikipedia.org/wiki/Katherine_Hoover,2022-08-18T16:59:59
Joan Tower,https://en.wikipedia.org/wiki/Joan_Tower,2022-08-19T17:59:59
Ellen Taaffe Zwilich,https://en.wikipedia.org/wiki/Ellen_Taaffe_Zwilich,2022-08-20T18:59:59
Libby Larsen,https://en.wikipedia.org/wiki/Libby_Larsen,2022-08-21T19:59:59
Jennifer Higdon,https://en.wikipedia.org/wiki/Jennifer_Higdon,2022-08-22T20:59:59
Agnes Tyrrell,https://en.wikipedia.org/wiki/Agnes_Tyrrell,2022-08-23T21:59:59
Amy Beach,https://en.wikipedia.org/wiki/Amy_Beach,2022-08-24T22:59:59
Verdina Shlonsky,https://en.wikipedia.org/wiki/Verdina_Shlonsky,2022-08-26T00:00:00
Ethel Smyth,https://en.wikipedia.org/wiki/Ethel_Smyth,2022-08-31T00:59:59
Dora Pejačević,https://en.wikipedia.org/wiki/Dora_Peja%C4%8Devi%C4%87,2022-09-01T01:59:59
Florence Price,https://en.wikipedia.org/wiki/Florence_Price,2022-09-02T02:59:59
Nadia Boulanger,https://en.wikipedia.org/wiki/Nadia_Boulanger,2022-09-03T03:59:59
Lili Boulanger,https://en.wikipedia.org/wiki/Lili_Boulanger,2022-09-04T04:59:59
Imogen Holst,https://en.wikipedia.org/wiki/Imogen_Holst,2022-09-05T05:59:59
Violet Archer,https://en.wikipedia.org/wiki/Violet_Archer,2022-09-06T06:59:59
Vítězslava Kaprálová,https://en.wikipedia.org/wiki/V%C3%ADt%C4%9Bzslava_Kapr%C3%A1lov%C3%A1,2022-09-07T07:59:59
Thea Musgrave,https://en.wikipedia.org/wiki/Thea_Musgrave,2022-09-08T08:59:59
Sofia Gubaidulina,https://en.wikipedia.org/wiki/Sofia_Gubaidulina,2022-09-09T09:59:59
Suzi Quatro,https://en.wikipedia.org/wiki/Suzi_Quatro,2022-09-10T10:59:58
Bonnie Raitt,https://en.wikipedia.org/wiki/Bonnie_Raitt,2022-09-11T11:59:58
Nancy Lamoureaux Wilson,https://en.wikipedia.org/wiki/Nancy_Wilson_(rock_musician),2022-09-12T12:59:58
Kaki King,https://en.wikipedia.org/wiki/Kaki_King,2022-09-13T13:59:58
Orianthi,https://en.wikipedia.org/wiki/Orianthi,2022-09-14T14:59:58
Sister Rosetta Tharpe,https://en.wikipedia.org/wiki/Sister_Rosetta_Tharpe,2022-09-15T15:59:58
Jennifer Batten,https://en.wikipedia.org/wiki/Jennifer_Batten,2022-09-16T16:59:58
Mary Ford,https://en.wikipedia.org/wiki/Mary_Ford,2022-09-17T17:59:58
Lita Ford,https://en.wikipedia.org/wiki/Lita_Ford,2022-09-18T18:59:58
Joan Jett,https://en.wikipedia.org/wiki/Joan_Jett,2022-09-19T19:59:58
Tal Wilkenfeld,https://en.wikipedia.org/wiki/Tal_Wilkenfeld,2022-09-20T20:59:58
Shirley Horn,https://en.wikipedia.org/wiki/Shirley_Horn,2022-09-21T21:59:58
Eva Cassidy,https://en.wikipedia.org/wiki/Eva_Cassidy,2022-09-22T22:59:58
Ruth Brown,https://en.wikipedia.org/wiki/Ruth_Brown,2022-09-23T23:59:58
Marian Anderson,https://en.wikipedia.org/wiki/Marian_Anderson,2022-09-25T00:59:58
Gunhild Carling,https://en.wikipedia.org/wiki/Gunhild_Carling,2022-09-26T01:59:58
Ina Ray Hutton,https://en.wikipedia.org/wiki/Ina_Ray_Hutton,2022-09-27T02:59:58
Dona Drake,https://en.wikipedia.org/wiki/Dona_Drake,2022-09-28T03:59:58
Anna McGarrigle,https://en.wikipedia.org/wiki/Anna_McGarrigle,2022-09-29T04:59:58
Kate McGarrigle,https://en.wikipedia.org/wiki/Kate_McGarrigle,2022-09-30T05:59:58
Cherie Currie,https://en.wikipedia.org/wiki/Cherie_Currie,2022-10-01T06:59:58
Marie Currie,https://en.wikipedia.org/wiki/Marie_Currie,2022-10-02T07:59:58
Natalie Maines,https://en.wikipedia.org/wiki/Natalie_Maines,2022-10-03T08:59:58
Emily Strayer,https://en.wikipedia.org/wiki/Emily_Strayer,2022-10-04T09:59:58
Viv Albertine,https://en.wikipedia.org/wiki/Viv_Albertine,2022-10-05T10:59:58
Kathy Valentine,https://en.wikipedia.org/wiki/Kathy_Valentine,2022-10-06T11:59:58
Courtney Love,https://en.wikipedia.org/wiki/Courtney_Love,2022-10-07T12:59:58
Melissa Auf der Maur,https://en.wikipedia.org/wiki/Melissa_Auf_der_Maur,2022-10-08T13:59:58
Patty Schemel,https://en.wikipedia.org/wiki/Patty_Schemel,2022-10-09T14:59:58
Lori Barbero,https://en.wikipedia.org/wiki/Lori_Barbero,2022-10-10T15:59:58
Tina Weymouth,https://en.wikipedia.org/wiki/Tina_Weymouth,2022-10-11T16:59:58
Michelle Williams,https://en.wikipedia.org/wiki/Michelle_Williams_(singer),2022-10-12T17:59:58
Beyoncé Giselle Knowles-Carter,https://en.wikipedia.org/wiki/Beyonc%C3%A9,2022-10-13T18:59:58
Kelly Rowland,https://en.wikipedia.org/wiki/Kelly_Rowland,2022-10-14T19:59:58
Mel B,https://en.wikipedia.org/wiki/Mel_B,2022-10-15T20:59:58
Melanie C,https://en.wikipedia.org/wiki/Melanie_C,2022-10-16T21:59:58
Emma Bunton,https://en.wikipedia.org/wiki/Emma_Bunton,2022-10-17T22:59:58
Geri Halliwell,https://en.wikipedia.org/wiki/Geri_Halliwell,2022-10-18T23:59:58
Victoria Beckham,https://en.wikipedia.org/wiki/Victoria_Beckham,2022-10-20T00:59:58
Jesy Nelson,https://en.wikipedia.org/wiki/Jesy_Nelson,2022-10-21T01:59:58
Leigh-Anne Pinnock,https://en.wikipedia.org/wiki/Leigh-Anne_Pinnock,2022-10-22T02:59:58
Jade Thirlwall,https://en.wikipedia.org/wiki/Jade_Thirlwall,2022-10-23T03:59:58
Perrie Edwards,https://en.wikipedia.org/wiki/Perrie_Edwards,2022-10-24T04:59:58
Ally Brooke,https://en.wikipedia.org/wiki/Ally_Brooke,2022-10-25T05:59:58
Normani,https://en.wikipedia.org/wiki/Normani,2022-10-26T06:59:58
Dinah Jane,https://en.wikipedia.org/wiki/Dinah_Jane,2022-10-27T07:59:58
Lauren Jauregui,https://en.wikipedia.org/wiki/Lauren_Jauregui,2022-10-28T08:59:58
Camila Cabello,https://en.wikipedia.org/wiki/Camila_Cabello,2022-10-29T09:59:58
Ella Fitzgerald,https://en.wikipedia.org/wiki/Ella_Fitzgerald,2022-10-30T10:59:58
Diane Schuur,https://en.wikipedia.org/wiki/Diane_Schuur,2022-10-31T11:59:58
Dinah Washington,https://en.wikipedia.org/wiki/Dinah_Washington,2022-11-01T12:59:58
Toshiko Akiyoshi,https://en.wikipedia.org/wiki/Toshiko_Akiyoshi,2022-11-02T13:59:58
Regina Carter,https://en.wikipedia.org/wiki/Regina_Carter,2022-11-03T14:59:58
Melba Liston,https://en.wikipedia.org/wiki/Melba_Liston,2022-11-04T15:59:58
Vi Redd,https://en.wikipedia.org/wiki/Vi_Redd,2022-11-05T16:59:58
Melissa Aldana,https://en.wikipedia.org/wiki/Melissa_Aldana,2022-11-06T17:59:58
Emily Remler,https://en.wikipedia.org/wiki/Emily_Remler,2022-11-07T18:59:58
Mimi Fox,https://en.wikipedia.org/wiki/Mimi_Fox,2022-11-08T19:59:58
Sweet Emma Barrett,https://en.wikipedia.org/wiki/Sweet_Emma_Barrett,2022-11-09T20:59:58
Terri Lyne Carrington,https://en.wikipedia.org/wiki/Terri_Lyne_Carrington,2022-11-10T21:59:58
Carla Bley,https://en.wikipedia.org/wiki/Carla_Bley,2022-11-11T22:59:58
Mary Lou Williams,https://en.wikipedia.org/wiki/Mary_Lou_Williams,2022-11-12T23:59:58
Billie Pierce,https://en.wikipedia.org/wiki/Billie_Pierce,2022-11-14T00:59:58
Jeanette Kimball,https://en.wikipedia.org/wiki/Jeanette_Kimball,2022-11-15T01:59:58
Lovie Austin,https://en.wikipedia.org/wiki/Lovie_Austin,2022-11-16T02:59:58
Joelle Khoury,https://en.wikipedia.org/wiki/Joelle_Khoury,2022-11-17T03:59:58
Martha Argerich,https://en.wikipedia.org/wiki/Martha_Argerich,2022-11-18T04:59:58
Britney Spears,https://en.wikipedia.org/wiki/Britney_Spears,2022-11-19T05:59:58
Lady Gaga,https://en.wikipedia.org/wiki/Lady_Gaga,2022-11-20T06:59:58
Ani DiFranco,https://en.wikipedia.org/wiki/Ani_DiFranco,2022-11-21T07:59:58
Betty Davis,https://en.wikipedia.org/wiki/Betty_Davis,2022-11-22T08:59:58
Chaka Khan,https://en.wikipedia.org/wiki/Chaka_Khan,2022-11-23T09:59:58
Cindy Birdsong,https://en.wikipedia.org/wiki/Cindy_Birdsong,2022-11-24T10:59:58
Nona Hendryx,https://en.wikipedia.org/wiki/Nona_Hendryx,2022-11-25T11:59:58
Sarah Dash,https://en.wikipedia.org/wiki/Sarah_Dash,2022-11-26T12:59:58
Adele,https://en.wikipedia.org/wiki/Adele,2022-11-27T13:59:58
Katy Perry,https://en.wikipedia.org/wiki/Katy_Perry,2022-11-28T14:59:58
Rihanna,https://en.wikipedia.org/wiki/Rihanna,2022-11-29T15:59:58
Celine Dion,https://en.wikipedia.org/wiki/Celine_Dion,2022-11-30T16:59:58
Jennifer Lopez,https://en.wikipedia.org/wiki/Jennifer_Lopez,2022-12-01T17:59:58
Shakira,https://en.wikipedia.org/wiki/Shakira,2022-12-02T18:59:58
Utada Hikaru,https://en.wikipedia.org/wiki/Utada_Hikaru,2022-12-03T19:59:58
Ma Rainey,https://en.wikipedia.org/wiki/Ma_Rainey,2022-12-04T20:59:58
Mamie Smith,https://en.wikipedia.org/wiki/Mamie_Smith,2022-12-05T21:59:58
Lucille Hegamin,https://en.wikipedia.org/wiki/Lucille_Hegamin,2022-12-06T22:59:58
Ethel Waters,https://en.wikipedia.org/wiki/Ethel_Waters,2022-12-07T23:59:58
Alberta Hunter,https://en.wikipedia.org/wiki/Alberta_Hunter,2022-12-09T00:59:58
Mary Stafford,https://en.wikipedia.org/wiki/Mary_Stafford_(singer),2022-12-10T01:59:58
Katie Crippen,https://en.wikipedia.org/wiki/Katie_Crippen,2022-12-11T02:59:58
Edith Wilson,https://en.wikipedia.org/wiki/Edith_Wilson_(singer),2022-12-12T03:59:58
Esther Bigeou,https://en.wikipedia.org/wiki/Esther_Bigeou,2022-12-13T04:59:58
Marion Harris,https://en.wikipedia.org/wiki/Marion_Harris,2022-12-14T05:59:58
Bessie Smith,https://en.wikipedia.org/wiki/Bessie_Smith,2022-12-15T06:59:58
Ida Cox,https://en.wikipedia.org/wiki/Ida_Cox,2022-12-16T07:59:58
Clara Smith,https://en.wikipedia.org/wiki/Clara_Smith,2022-12-17T08:59:58
Sara Martin,https://en.wikipedia.org/wiki/Sara_Martin,2022-12-18T09:59:58
Mahalia Jackson,https://en.wikipedia.org/wiki/Mahalia_Jackson,2022-12-19T10:59:58
Janis Joplin,https://en.wikipedia.org/wiki/Janis_Joplin,2022-12-20T11:59:58
La Gale,https://fr.wikipedia.org/wiki/La_Gale,2022-12-21T12:59:58
Kacey Musgraves,https://en.wikipedia.org/wiki/Kacey_Musgraves,2022-12-22T13:59:58
Lena Horne,https://en.wikipedia.org/wiki/Lena_Horne,2022-12-23T14:59:58
Etta Jones,https://en.wikipedia.org/wiki/Etta_Jones,2022-12-24T15:59:58
Nina Simone,https://en.wikipedia.org/wiki/Nina_Simone,2022-12-25T16:59:58
Anita O'Day,https://en.wikipedia.org/wiki/Anita_O%27Day,2022-12-26T17:59:58
Sarah Vaughan,https://en.wikipedia.org/wiki/Sarah_Vaughan,2022-12-27T18:59:58
Rosemary Clooney,https://en.wikipedia.org/wiki/Rosemary_Clooney,2022-12-28T19:59:58
Flora Purim,https://en.wikipedia.org/wiki/Flora_Purim,2022-12-29T20:59:58
Norah Jones,https://en.wikipedia.org/wiki/Norah_Jones,2022-12-30T21:59:58
Diana Krall,https://en.wikipedia.org/wiki/Diana_Krall,2022-12-31T22:59:58
Melody Gardot,https://en.wikipedia.org/wiki/Melody_Gardot,2023-01-01T23:59:58
Esperanza Spalding,https://en.wikipedia.org/wiki/Esperanza_Spalding,2023-01-03T00:59:58
Elly Ameling,https://en.wikipedia.org/wiki/Elly_Ameling,2023-01-04T01:59:58
Cecilia Bartoli,https://en.wikipedia.org/wiki/Cecilia_Bartoli,2023-01-05T02:59:58
Kathleen Battle,https://en.wikipedia.org/wiki/Kathleen_Battle,2023-01-06T03:59:58
Maria Callas,https://en.wikipedia.org/wiki/Maria_Callas,2023-01-07T04:59:58
Natalie Dessay,https://en.wikipedia.org/wiki/Natalie_Dessay,2023-01-08T05:59:58
Joyce DiDonato,https://en.wikipedia.org/wiki/Joyce_DiDonato,2023-01-09T06:59:58
Frederica von Stade,https://en.wikipedia.org/wiki/Frederica_von_Stade,2023-01-10T07:59:58
Renée Fleming,https://en.wikipedia.org/wiki/Ren%C3%A9e_Fleming,2023-01-11T08:59:58
Elīna Garanča,https://en.wikipedia.org/wiki/El%C4%ABna_Garan%C4%8Da,2023-01-12T09:59:58
Susan Graham,https://en.wikipedia.org/wiki/Susan_Graham,2023-01-13T10:59:58
Anna Netrebko,https://en.wikipedia.org/wiki/Anna_Netrebko,2023-01-14T11:59:58
Jessye Norman,https://en.wikipedia.org/wiki/Jessye_Norman,2023-01-15T12:59:58
Kesha,https://en.wikipedia.org/wiki/Kesha,2023-01-16T13:59:58
Dua Lipa,https://en.wikipedia.org/wiki/Dua_Lipa,2023-01-17T14:59:58
Carmen Miranda,https://en.wikipedia.org/wiki/Carmen_Miranda,2023-01-18T15:59:58
Josephine Baker,https://en.wikipedia.org/wiki/Josephine_Baker,2023-01-19T16:59:58
Elis Regina,https://en.wikipedia.org/wiki/Elis_Regina,2023-01-20T17:59:58
Yma Sumac,https://en.wikipedia.org/wiki/Yma_Sumac,2023-01-21T18:59:58
Mercedes Sosa,https://en.wikipedia.org/wiki/Mercedes_Sosa,2023-01-22T19:59:58
Miriam Makeba,https://en.wikipedia.org/wiki/Miriam_Makeba,2023-01-23T20:59:58
Maria Farantouri,https://en.wikipedia.org/wiki/Maria_Farantouri,2023-01-24T21:59:58
Celia Cruz,https://en.wikipedia.org/wiki/Celia_Cruz,2023-01-25T22:59:58
Umm Kulthum,https://en.wikipedia.org/wiki/Umm_Kulthum,2023-01-26T23:59:58
Asmahan,https://en.wikipedia.org/wiki/Asmahan,2023-01-28T00:59:58
Fairuz,https://en.wikipedia.org/wiki/Fairuz,2023-01-29T01:59:58
Cheikha Rimitti,https://en.wikipedia.org/wiki/Cheikha_Rimitti,2023-01-30T02:59:58
Asha Bhosle,https://en.wikipedia.org/wiki/Asha_Bhosle,2023-01-31T03:59:58
Esma Redžepova,https://en.wikipedia.org/wiki/Esma_Red%C5%BEepova,2023-02-01T04:59:58
Chavela Vargas,https://en.wikipedia.org/wiki/Chavela_Vargas,2023-02-02T05:59:58
Hilda Tloubatla,https://en.wikipedia.org/wiki/Hilda_Tloubatla,2023-02-03T06:59:58
Nobesuthu Mbadu,https://en.wikipedia.org/wiki/Nobesuthu_Mbadu,2023-02-04T07:59:58
Cesária Évora,https://en.wikipedia.org/wiki/Ces%C3%A1ria_%C3%89vora,2023-02-05T08:59:58
Stella Chiweshe,https://en.wikipedia.org/wiki/Stella_Chiweshe,2023-02-06T09:59:58
Susana Baca,https://en.wikipedia.org/wiki/Susana_Baca,2023-02-07T10:59:58
Julie Semoroz,https://juliesemoroz.ch/,2023-02-08T11:59:58
Ann Savoy,https://en.wikipedia.org/wiki/Ann_Savoy,2023-02-09T12:59:58
Bi Kidude,https://en.wikipedia.org/wiki/Bi_Kidude,2023-02-10T13:59:58
Brenda Fassie,https://en.wikipedia.org/wiki/Brenda_Fassie,2023-02-11T14:59:58
Chabuca Granda,https://en.wikipedia.org/wiki/Chabuca_Granda,2023-02-12T15:59:58
Chava Alberstein,https://en.wikipedia.org/wiki/Chava_Alberstein,2023-02-13T16:59:58
Cléoma Falcon,https://en.wikipedia.org/wiki/Cl%C3%A9oma_Falcon,2023-02-14T17:59:58
Dolly Collins,https://en.wikipedia.org/wiki/Dolly_Collins,2023-02-15T18:59:58
Elizabeth Cotten,https://en.wikipedia.org/wiki/Elizabeth_Cotten,2023-02-16T19:59:58
Fréhel,https://en.wikipedia.org/wiki/Fr%C3%A9hel,2023-02-17T20:59:58
Gal Costa,https://en.wikipedia.org/wiki/Gal_Costa,2023-02-18T21:59:58
Genoa Keawe,https://en.wikipedia.org/wiki/Genoa_Keawe,2023-02-19T22:59:58
Googoosh,https://en.wikipedia.org/wiki/Googoosh,2023-02-20T23:59:58
Hazel Dickens,https://en.wikipedia.org/wiki/Hazel_Dickens,2023-02-22T00:59:58
Jean Ritchie,https://en.wikipedia.org/wiki/Jean_Ritchie,2023-02-23T01:59:58
Lata Mangeshkar,https://en.wikipedia.org/wiki/Lata_Mangeshkar,2023-02-24T02:59:58
Lola Beltrán,https://en.wikipedia.org/wiki/Lola_Beltr%C3%A1n,2023-02-25T03:59:58
Lucha Reyes,https://en.wikipedia.org/wiki/Lucha_Reyes_(Peruvian_singer),2023-02-26T04:59:58
Lucilla Galeazzi,https://en.wikipedia.org/wiki/Lucilla_Galeazzi,2023-02-27T05:59:58
Lydia Mendoza,https://en.wikipedia.org/wiki/Lydia_Mendoza,2023-02-28T06:59:58
Maria Tănase,https://en.wikipedia.org/wiki/Maria_T%C4%83nase,2023-03-01T07:59:58
Mariam Doumbia,https://en.wikipedia.org/wiki/Amadou_%26_Mariam,2023-03-02T08:59:58
Nada Mamula,https://en.wikipedia.org/wiki/Nada_Mamula,2023-03-03T09:59:58
Ofra Haza,https://en.wikipedia.org/wiki/Ofra_Haza,2023-03-04T10:59:58
Oumou Sangaré,https://en.wikipedia.org/wiki/Oumou_Sangar%C3%A9,2023-03-05T11:59:58
Rita Marley,https://en.wikipedia.org/wiki/Rita_Marley,2023-03-06T12:59:58
Rosa Passos,https://en.wikipedia.org/wiki/Rosa_Passos,2023-03-07T13:59:58
Roza Eskenazi,https://en.wikipedia.org/wiki/Roza_Eskenazi,2023-03-08T14:59:58
Safiye Ayla,https://en.wikipedia.org/wiki/Safiye_Ayla,2023-03-09T15:59:58
Salamat Sadikova,https://en.wikipedia.org/wiki/Salamat_Sadikova,2023-03-10T16:59:58
Selda Bağcan,https://en.wikipedia.org/wiki/Selda_Ba%C4%9Fcan,2023-03-11T17:59:58
Shirley Collins,https://en.wikipedia.org/wiki/Shirley_Collins,2023-03-12T18:59:58
Valya Balkanska,https://en.wikipedia.org/wiki/Valya_Balkanska,2023-03-13T19:59:58
Violeta Parra,https://en.wikipedia.org/wiki/Violeta_Parra,2023-03-14T20:59:58
Warda Al-Jazairia,https://en.wikipedia.org/wiki/Warda_Al-Jazairia,2023-03-15T21:59:58
Zap Mama,https://en.wikipedia.org/wiki/Zap_Mama,2023-03-16T22:59:58
Cai Yan,https://en.wikipedia.org/wiki/Cai_Yan,2023-03-17T23:59:58
Zhou Xuan,https://en.wikipedia.org/wiki/Zhou_Xuan,2023-03-19T00:59:58
Gong Qiuxia,https://en.wikipedia.org/wiki/Gong_Qiuxia,2023-03-20T01:59:58
Yao Lee,https://en.wikipedia.org/wiki/Yao_Lee,2023-03-21T02:59:58
Bai Hong,https://en.wikipedia.org/wiki/Bai_Hong,2023-03-22T03:59:58
Bai Guang,https://en.wikipedia.org/wiki/Bai_Guang,2023-03-23T04:59:58
Yoshiko Yamaguchi,https://en.wikipedia.org/wiki/Yoshiko_Yamaguchi,2023-03-24T05:59:58
Wu Yingyin,https://en.wikipedia.org/wiki/Wu_Yingyin,2023-03-25T06:59:58
Ada Zhuang,https://en.wikipedia.org/wiki/Ada_Zhuang,2023-03-26T07:59:58
Kelly Yu,https://en.wikipedia.org/wiki/Kelly_Yu,2023-03-27T08:59:58
Feng Timo,https://en.wikipedia.org/wiki/Feng_Timo,2023-03-28T09:59:58
Bibi Zhou,https://en.wikipedia.org/wiki/Bibi_Zhou,2023-03-29T10:59:58
Tia Ray,https://en.wikipedia.org/wiki/Tia_Ray,2023-03-30T11:59:58
Jane Zhang,https://en.wikipedia.org/wiki/Jane_Zhang,2023-03-31T12:59:58
D. K. Pattammal,https://en.wikipedia.org/wiki/D._K._Pattammal,2023-04-01T13:59:58
M. S. Subbulakshmi,https://en.wikipedia.org/wiki/M._S._Subbulakshmi,2023-04-02T14:59:58
Gangubai Hangal,https://en.wikipedia.org/wiki/Gangubai_Hangal,2023-04-03T15:59:58
Hirabai Barodekar,https://en.wikipedia.org/wiki/Hirabai_Barodekar,2023-04-04T16:59:58
Kesarbai Kerkar,https://en.wikipedia.org/wiki/Kesarbai_Kerkar,2023-04-05T17:59:58
Kishori Amonkar,https://en.wikipedia.org/wiki/Kishori_Amonkar,2023-04-06T18:59:58
Malini Rajurkar,https://en.wikipedia.org/wiki/Malini_Rajurkar,2023-04-07T19:59:58
Mogubai Kurdikar,https://en.wikipedia.org/wiki/Mogubai_Kurdikar,2023-04-08T20:59:58
Prabha Atre,https://en.wikipedia.org/wiki/Prabha_Atre,2023-04-09T21:59:58
Roshan Ara Begum,https://en.wikipedia.org/wiki/Roshan_Ara_Begum,2023-04-10T22:59:58
Shruti Sadolikar,https://en.wikipedia.org/wiki/Shruti_Sadolikar,2023-04-11T23:59:58
Annapurna Devi,https://en.wikipedia.org/wiki/Annapurna_Devi,2023-04-13T00:59:58
Qamar-ol-Moluk Vaziri,https://en.wikipedia.org/wiki/Qamar-ol-Moluk_Vaziri,2023-04-14T01:59:58
Delkash,https://en.wikipedia.org/wiki/Delkash,2023-04-15T02:59:58
Simin Ghanem,https://en.wikipedia.org/wiki/Simin_Ghanem,2023-04-16T03:59:58
Maryam Akhondy,https://en.wikipedia.org/wiki/Maryam_Akhondy,2023-04-17T04:59:58
Shakila,https://en.wikipedia.org/wiki/Shakila,2023-04-18T05:59:58
Soodabeh Salem,https://en.wikipedia.org/wiki/Soodabeh_Salem,2023-04-19T06:59:58
Afsaneh Rasaei,https://en.wikipedia.org/wiki/Afsaneh_Rasaei,2023-04-20T07:59:58
Pirayeh Pourafar,https://en.wikipedia.org/wiki/Pirayeh_Pourafar,2023-04-21T08:59:58
Mahsa Vahdat,https://en.wikipedia.org/wiki/Mahsa_Vahdat,2023-04-22T09:59:58
Parisa,https://en.wikipedia.org/wiki/Parisa,2023-04-23T10:59:58
Sima Bina,https://en.wikipedia.org/wiki/Sima_Bina,2023-04-24T11:59:58
Darya Dadvar,https://en.wikipedia.org/wiki/Darya_Dadvar,2023-04-25T12:59:58
Ziba Shirazi,https://en.wikipedia.org/wiki/Ziba_Shirazi,2023-04-26T13:59:58
Zohreh Jooya,https://en.wikipedia.org/wiki/Zohreh_Jooya,2023-04-27T14:59:58
Shusha Guppy,https://en.wikipedia.org/wiki/Shusha_Guppy,2023-04-28T15:59:58
Hayedeh,https://en.wikipedia.org/wiki/Hayedeh,2023-04-29T16:59:58
Mahasti,https://en.wikipedia.org/wiki/Mahasti,2023-04-30T17:59:58
Leila Forouhar,https://en.wikipedia.org/wiki/Leila_Forouhar,2023-05-01T18:59:58
Pooran,https://en.wikipedia.org/wiki/Pooran_(singer),2023-05-02T19:59:58
Laleh,https://en.wikipedia.org/wiki/Laleh_(singer),2023-05-03T20:59:58
Azam Ali,https://en.wikipedia.org/wiki/Azam_Ali,2023-05-04T21:59:58
Susan McClary,https://en.wikipedia.org/wiki/Susan_McClary,2023-05-05T22:59:58
Suzanne Cusick,https://en.wikipedia.org/wiki/Suzanne_Cusick,2023-05-06T23:59:58
Maud Cuney Hare,https://en.wikipedia.org/wiki/Maud_Cuney_Hare,2023-05-08T00:59:58
Kendra Preston Leonard,https://en.wikipedia.org/wiki/Kendra_Preston_Leonard,2023-05-09T01:59:58
Rosetta Reitz,https://en.wikipedia.org/wiki/Rosetta_Reitz,2023-05-10T02:59:58
Anahit Tsitsikian,https://en.wikipedia.org/wiki/Anahit_Tsitsikian,2023-05-11T03:59:58
Ida Halpern,https://en.wikipedia.org/wiki/Ida_Halpern,2023-05-12T04:59:58
Simone Young,https://en.wikipedia.org/wiki/Simone_Young,2023-05-13T05:59:58
Marin Alsop,https://en.wikipedia.org/wiki/Marin_Alsop,2023-05-14T06:59:58
Jeri Lynne Johnson,https://en.wikipedia.org/wiki/Jeri_Lynne_Johnson,2023-05-15T07:59:58
Jessica Bejarano,https://en.wikipedia.org/wiki/Jessica_Bejarano,2023-05-16T08:59:58
Frieda Belinfante,https://en.wikipedia.org/wiki/Frieda_Belinfante,2023-05-17T09:59:58
Gisele Ben-Dor,https://en.wikipedia.org/wiki/Gisele_Ben-Dor,2023-05-18T10:59:58
Antonia Brico,https://en.wikipedia.org/wiki/Antonia_Brico,2023-05-19T11:59:58
Sylvia Caduff,https://en.wikipedia.org/wiki/Sylvia_Caduff,2023-05-20T12:59:58
Joana Carneiro,https://en.wikipedia.org/wiki/Joana_Carneiro,2023-05-21T13:59:58
Sian Edwards,https://en.wikipedia.org/wiki/Sian_Edwards,2023-05-22T14:59:58
JoAnn Falletta,https://en.wikipedia.org/wiki/JoAnn_Falletta,2023-05-23T15:59:58
Jane Glover,https://en.wikipedia.org/wiki/Jane_Glover,2023-05-24T16:59:58
Mirga Gražinytė-Tyla,https://en.wikipedia.org/wiki/Mirga_Gra%C5%BEinyt%C4%97-Tyla,2023-05-25T17:59:58
Julia Jones,https://en.wikipedia.org/wiki/Julia_Jones_(conductor),2023-05-26T18:59:58
Karen Kamensek,https://en.wikipedia.org/wiki/Karen_Kamensek,2023-05-27T19:59:58
Natalia Luis-Bassa,https://en.wikipedia.org/wiki/Natalia_Luis-Bassa,2023-05-28T20:59:58
Alondra de la Parra,https://en.wikipedia.org/wiki/Alondra_de_la_Parra,2023-05-29T21:59:58
Kristiina Poska,https://en.wikipedia.org/wiki/Kristiina_Poska,2023-05-30T22:59:58
Lidiya Yankovskaya,https://en.wikipedia.org/wiki/Lidiya_Yankovskaya,2023-05-31T23:59:58
Xian Zhang,https://en.wikipedia.org/wiki/Xian_Zhang_(conductor),2023-06-02T00:59:58
Ann Powers,https://en.wikipedia.org/wiki/Ann_Powers,2023-06-03T01:59:58
Tori Amos,https://en.wikipedia.org/wiki/Tori_Amos,2023-06-04T02:59:58
Tanja Bakić,https://en.wikipedia.org/wiki/Tanja_Baki%C4%87,2023-06-05T03:59:58
Raquel Cepeda,https://en.wikipedia.org/wiki/Raquel_Cepeda,2023-06-06T04:59:58
Joy Press,https://en.wikipedia.org/wiki/Joy_Press,2023-06-07T05:59:58
Lillian Roxon,https://en.wikipedia.org/wiki/Lillian_Roxon,2023-06-08T06:59:58
Linda Solomon,https://en.wikipedia.org/wiki/Linda_Solomon,2023-06-09T07:59:58
Penny Valentine,https://en.wikipedia.org/wiki/Penny_Valentine,2023-06-10T08:59:58
Ellen Willis,https://en.wikipedia.org/wiki/Ellen_Willis,2023-06-11T09:59:58
Anne Midgette,https://en.wikipedia.org/wiki/Anne_Midgette,2023-06-12T10:59:58
Marion Lignana Rosenberg,https://en.wikipedia.org/wiki/Marion_Lignana_Rosenberg,2023-06-13T11:59:58
Lillian McMurry,https://en.wikipedia.org/wiki/Lillian_McMurry,2023-06-14T12:59:58
Mary Shipman Howard,https://en.wikipedia.org/wiki/Mary_Shipman_Howard,2023-06-15T13:59:58
Cordell Jackson,https://en.wikipedia.org/wiki/Cordell_Jackson,2023-06-16T14:59:58
Ethel Gabriel,https://en.wikipedia.org/wiki/Ethel_Gabriel,2023-06-17T15:59:58
Trina Shoemaker,https://en.wikipedia.org/wiki/Trina_Shoemaker,2023-06-18T16:59:58
Sheryl Crow,https://en.wikipedia.org/wiki/Sheryl_Crow,2023-06-19T17:59:58
Emmylou Harris,https://en.wikipedia.org/wiki/Emmylou_Harris,2023-06-20T18:59:58
Nanci Griffith,https://en.wikipedia.org/wiki/Nanci_Griffith,2023-06-21T19:59:58
Amy Ray,https://en.wikipedia.org/wiki/Amy_Ray,2023-06-22T20:59:58
Emily Saliers,https://en.wikipedia.org/wiki/Emily_Saliers,2023-06-23T21:59:58
Leslie Ann Jones,https://en.wikipedia.org/wiki/Leslie_Ann_Jones,2023-06-24T22:59:58
Sylvia Massy,https://en.wikipedia.org/wiki/Sylvia_Massy,2023-06-25T23:59:58
Emily Lazar,https://en.wikipedia.org/wiki/Emily_Lazar,2023-06-27T00:59:58
Susan Rogers,https://en.wikipedia.org/wiki/Susan_Rogers,2023-06-28T01:59:58
Genya Ravan,https://en.wikipedia.org/wiki/Genya_Ravan,2023-06-29T02:59:58
Sylvia Robinson,https://en.wikipedia.org/wiki/Sylvia_Robinson,2023-06-30T03:59:58
Lari White,https://en.wikipedia.org/wiki/Lari_White,2023-07-01T04:59:58
The Blessed Madonna,https://en.wikipedia.org/wiki/The_Blessed_Madonna,2023-07-02T05:59:58
Nicole Moudaber,https://en.wikipedia.org/wiki/Nicole_Moudaber,2023-07-03T06:59:58
Linda Tillery,https://en.wikipedia.org/wiki/Linda_Tillery,2023-07-04T07:59:58
Mary Watkins,https://en.wikipedia.org/wiki/Mary_Watkins,2023-07-05T08:59:58
Margie Adam,https://en.wikipedia.org/wiki/Margie_Adam,2023-07-06T09:59:58
Cris Williamson,https://en.wikipedia.org/wiki/Cris_Williamson,2023-07-07T10:59:58
Meg Christian,https://en.wikipedia.org/wiki/Meg_Christian,2023-07-08T11:59:58
Bernice Johnson Reagon,https://en.wikipedia.org/wiki/Bernice_Johnson_Reagon,2023-07-09T12:59:58
Nitanju Bolade Casel,https://en.wikipedia.org/wiki/Nitanju_Bolade_Casel,2023-07-10T13:59:58
Holly Near,https://en.wikipedia.org/wiki/Holly_Near,2023-07-11T14:59:58
Delia Derbyshire,https://en.wikipedia.org/wiki/Delia_Derbyshire,2023-07-12T15:59:58
Nina Hagen,https://en.wikipedia.org/wiki/Nina_Hagen,2023-07-13T16:59:58
Malaria!,https://en.wikipedia.org/wiki/Malaria!,2023-07-14T17:59:58
Hanin Elias,https://en.wikipedia.org/wiki/Hanin_Elias,2023-07-15T18:59:58
Beth Gibbons,https://en.wikipedia.org/wiki/Beth_Gibbons,2023-07-16T19:59:58
Pan Daijing,https://nr.world/celebration/pan-daijing/,2023-07-17T20:59:58
Maya Dunietz,https://en.wikipedia.org/wiki/Maya_Dunietz,2023-07-18T21:59:58
Sibylle Baier,https://en.wikipedia.org/wiki/Sibylle_Baier,2023-07-19T22:59:58
Alev Lenz,https://en.wikipedia.org/wiki/Alev_Lenz,2023-07-20T23:59:58
Hania Rani,https://en.wikipedia.org/wiki/Hania_Rani,2023-07-21T00:59:58
Tkay Maidza,https://en.wikipedia.org/wiki/Tkay_Maidza,2023-07-22T01:59:58
Kim Gordon,https://en.wikipedia.org/wiki/Kim_Gordon,2023-07-23T02:59:58
Little Simz,https://en.wikipedia.org/wiki/Little_Simz,2023-07-24T03:59:58
Halsey,https://en.wikipedia.org/wiki/Halsey_(singer),2023-07-25T04:59:58
Kælan Mikla,https://en.wikipedia.org/wiki/K%C3%A6lan_Mikla,2023-07-26T05:59:58
Tommy Genesis,https://en.wikipedia.org/wiki/Tommy_Genesis,2023-07-27T06:59:58
Léonie Pernet,https://fr.wikipedia.org/wiki/L%C3%A9onie_Pernet,2023-07-28T07:59:58
Mitski,https://en.wikipedia.org/wiki/Mitski,2023-07-29T08:59:58
Anja Kreysing,https://anjakreysing.de,2023-07-30T09:59:58
Anadol,https://anadol.bandcamp.com,2023-07-31T10:59:58
Nail Club,https://nailclub.bandcamp.com,2023-08-01T11:59:58
Lucrecia Dalt,https://en.wikipedia.org/wiki/Lucrecia_Dalt,2023-08-02T12:59:58
Suzanne Ciani,https://en.wikipedia.org/wiki/Suzanne_Cianid,2023-08-03T13:59:58
Antye Greie,https://en.wikipedia.org/wiki/Antye_Greie,2023-08-04T14:59:58
Caroline Shaw,https://en.wikipedia.org/wiki/Caroline_Shaw,2023-08-05T15:59:58
Elizabeth Maconchy,https://en.wikipedia.org/wiki/Elizabeth_Maconchy,2023-08-06T16:59:58
Erykah Badu,https://en.wikipedia.org/wiki/Erykah_Badu,2023-08-07T17:59:58
Althea & Donna,https://en.wikipedia.org/wiki/Althea_&_Donna,2023-08-08T18:59:58
Tash Sultana,https://en.wikipedia.org/wiki/Tash_Sultana,2023-08-09T19:59:58
Christina Pluhar,https://en.wikipedia.org/wiki/Christina_Pluhar,2023-08-10T20:59:58
Eivør Pálsdóttir,https://en.wikipedia.org/wiki/Eivør_(singer),2023-08-11T21:59:58
Eliana Burki,https://de.wikipedia.org/wiki/Eliana_Burki,2023-08-12T22:59:58
Fatoumata Diawara,https://en.wikipedia.org/wiki/Fatoumata_Diawara,2023-08-13T23:59:58
Joan Baez,https://en.wikipedia.org/wiki/Joan_Baez,2023-08-15T00:59:57
